{
  "data": [
    {
      "id": 1,
      "name": "Alice Johnson",
      "email": "alice@example.com",
      "role": "admin",
      "avatar": "https://api.example.com/avatars/1.jpg",
      "created_at": "2024-01-15T10:30:00Z",
      "last_login": "2025-04-16T14:22:00Z"
    },
    {
      "id": 2,
      "name": "Bob Smith",
      "email": "bob@example.com",
      "role": "user",
      "avatar": "https://api.example.com/avatars/2.jpg",
      "created_at": "2024-02-20T08:15:00Z",
      "last_login": "2025-04-15T09:30:00Z"
    },
    {
      "id": 3,
      "name": "Carol Williams",
      "email": "carol@example.com",
      "role": "user",
      "avatar": "https://api.example.com/avatars/3.jpg",
      "created_at": "2024-03-10T16:45:00Z",
      "last_login": "2025-04-17T07:00:00Z"
    }
  ],
  "meta": {
    "page": 1,
    "limit": 20,
    "total": 42,
    "total_pages": 3
  }
}
